{
  "default": {
    "custom_position_image": "col_clipse_xl.png",
    "DefImageName": "default.png",
    "dimensions": "30,132",
    "dimensions_orig": "30,132",
    "engraving_angle": "90",
    "engraving_area": {
      "dmm": "60",
      "engraving_box_x_0": "4",
      "engraving_box_x_len": "30",
      "engraving_box_y_0": "60",
      "engraving_box_y_len": "35",
      "engraving_restriction": "False",
      "fix_engraving_location": "True"
    },
    "fonts": [
      {
        "fontsize": "5.3",
        "laserPin": "1",
 	      "opacity": "160",
        "police": "HennessySans1765_A.otf",
        "policeName": "Hennessy Sans"
      },
      {
        "fontsize": "5",
        "laserPin": "1",
 	      "opacity": "160",
        "police": "DUBAI-LIGHT.TTF",
        "policeName": "Dubai Light"
      },
      {
        "fontsize": "6.6",
        "laserPin": "1",
 	      "opacity": "160",
        "police": "HennessyScript1765_A_It.otf",
        "policeName": "Hennessy Script"
      },
      {
        "fontsize": "5",
        "laserPin": "1",
 	      "opacity": "160",
        "police": "simkai.ttf",
        "policeName": "Kaiti"
      },
      {
        "fontsize": "5",
        "laserPin": "1",
 	      "opacity": "160",
        "police": "Symbola.woff",
        "policeName": "Symbola"
      }
    ],
    "hatch": "0.08",
    "hauteur": "67",
    "id_brand": "Hennessy",
    "ImageName": "default.png",
    "laser": [
      {
        "description": "Cuir Hennessy Rouge joie",
        "doublehatch": "0",
        "frequence": "30",
        "hatch": "0.08",
        "hatch_angle": "90",
        "mark_delay": "1000",
        "n_jump_lines": "1",
        "nbpassage": "1",
        "pinLoad": "1",
        "puissance": "48",
        "use_new_cnc_method": true,
        "vitesse": "1000"
      }
    ],
    "max_number_of_lines": "1",
    "maxHeightMM": "45",
    "maxWidthMM": "11.5",
    "platform_base_height_xl": "83",
    "product_category_id": "paradise_accessories",
    "product_category_name": "Paradise Accessories",
    "product_id": "col_clipse_paradise_joy_red",
    "ProductName": "Col Clipse Paradis Joy Red",
    "radius": "999999",
    "text_color": "black",
    "timestamp": 1625044753655,
    "X_Offset": "-0.0",
    "emojis": [
      "\\u{2022} \\u{2B27}",
      "\\u{2461} \\u{2462} \\u{2463} \\u{2464} \\u{2465} \\u{2466} \\u{2467} \\u{2468} \\u{2469} \\u{246A} \\u{246B} \\u{246C} \\u{246D}"
    ]
  }
}