{
  "default": {
    "DefImageName": "default.png",
    "dimensions": "75,145",
    "dimensions_orig": "75,145",
    "editionDate": "2023-03-02 10:04:22",
    "emojis": null,
    "engraving_angle": "0",
    "engraving_area": {
      "dmm": "60",
      "engraving_box_x_0": "4",
      "engraving_box_x_len": "30",
      "engraving_box_y_0": "60",
      "engraving_box_y_len": "35",
      "engraving_restriction": "False",
      "fix_engraving_location": "True"
    },
    "fonts": [
      {
        "fontsize": "3.7",
        "laserPin": "1",
        "police": "PalatinoLinotype-Roman-WithEmojis.otf",
        "policeName": "Palatino"
      }
    ],
    "hatch": "0.06",
    "hauteur": "35",
    "id_brand": "Marly",
    "ImageName": "default.png",
    "laser": [
      {
        "description": "ok",
        "doublehatch": "0",
        "frequence": "12",
        "hatch": "0.02",
        "hatch_angle": "0",
        "mark_delay": "900",
        "n_jump_lines": "5",
        "nbpassage": "2",
        "pinLoad": "1",
        "puissance": "18",
        "use_new_cnc_method": false,
        "vitesse": "1000"
      }
    ],
    "max_number_of_lines": "2",
    "maxHeightMM": "40",
    "maxWidthMM": "40",
    "platform_number": "3",
    "product_category_id": "Carlisle",
    "product_category_name": "Carlisle",
    "product_id": "125ml",
    "ProductName": "Carlisle 125ml",
    "radius": "70",
    "text_color": "whitte",
    "timestamp": 1677751462833
  }
}