{
  "default": {
    "DefImageName": "default.png",
    "dimensions": "66,152",
    "dimensions_orig": "66,152",
    "editionDate": "2023-01-19 13:39:34",
    "emojis": null,
    "engraving_angle": "0",
    "engraving_area": {
      "dmm": "60",
      "engraving_box_x_0": "4",
      "engraving_box_x_len": "30",
      "engraving_box_y_0": "60",
      "engraving_box_y_len": "35",
      "engraving_restriction": "False",
      "fix_engraving_location": "True"
    },
    "fonts": [
	{
        "fontsize": "6.5",
        "laserPin": "10,21,22,23",
        "opacity": "60",
        "police": "Kunstler_Script.ttf",
        "policeName": "Kunstler"
      },
      {
        "fontsize": "4.4",
        "laserPin": "20,21,22,23",
        "opacity": "125",
        "police": "DINOT-CondBold.ttf",
        "policeName": "DIN"
      },
      {
        "fontsize": "3.8",
        "laserPin": "20,21,22,23",
        "opacity": "125",
        "police": "CochinLTPro.ttf",
        "policeName": "Cochin"
      },
      {
        "fontsize": "5.8",
        "laserPin": "20,21,22,23",
        "opacity": "125",
        "police": "AdobeArabic-Regular.otf",
        "policeName": "Arabe"
      },
      {
        "fontsize": "4.5",
        "laserPin": "20,21,22,23",
        "opacity": "125",
        "police": "msyhl.ttc",
        "policeName": "Chinois"
      }
    ],
    "hatch": "0.06",
    "hauteur": "22",
    "id_brand": "Dior",
    "ImageName": "default.png",
    "laser": [
{
        "description": "20-110",
        "doublehatch": "0",
        "engraving_mode": "hatching",
        "frequence": "44",
        "hatch": "0.02",
        "hatch_angle": "00",
        "mark_delay": "900",
        "n_jump_lines": "20",
        "nbpassage": "3",
        "pinLoad": "10",
        "puissance": "40",
        "use_new_cnc_method": false,
        "vitesse": "400"
      },
      {
        "description": "20-110",
        "doublehatch": "1",
        "engraving_mode": "hatching",
        "frequence": "30",
        "hatch": "0.04",
        "hatch_angle": "20",
        "mark_delay": "900",
        "n_jump_lines": "20",
        "nbpassage": "1",
        "pinLoad": "20",
        "puissance": "45",
        "use_new_cnc_method": false,
        "vitesse": "250"
      },
      {
        "description": "40-130",
        "doublehatch": "1",
        "engraving_mode": "hatching",
        "frequence": "35",
        "hatch": "0.04",
        "hatch_angle": "40",
        "mark_delay": "900",
        "n_jump_lines": "20",
        "nbpassage": "1",
        "pinLoad": "21",
        "puissance": "40",
        "use_new_cnc_method": false,
        "vitesse": "1300"
      },
      {
        "description": "60-150",
        "doublehatch": "1",
        "engraving_mode": "hatching",
        "frequence": "35",
        "hatch": "0.04",
        "hatch_angle": "60",
        "mark_delay": "900",
        "n_jump_lines": "20",
        "nbpassage": "1",
        "pinLoad": "22",
        "puissance": "40",
        "use_new_cnc_method": false,
        "vitesse": "1300"
      },
      {
        "description": "80-170",
        "doublehatch": "1",
        "engraving_mode": "hatching",
        "frequence": "35",
        "hatch": "0.04",
        "hatch_angle": "80",
        "mark_delay": "900",
        "n_jump_lines": "20",
        "nbpassage": "1",
        "pinLoad": "23",
        "puissance": "40",
        "use_new_cnc_method": false,
        "vitesse": "1300"
      }
    ],
    "max_number_of_lines": "1",
    "maxHeightMM": "22",
    "maxWidthMM": "45",
    "platform_number": "3",
    "product_category_id": "dior_homme_sport",
    "product_category_name": "Dior Homme Sport",
    "product_id": "200ml",
    "ProductName": "Dior Homme Sport EDT 200ml",
    "radius": "999999",
    "text_color": "black",
    "timestamp": 1674135574203
  }
}