{
  "default": {
    "DefImageName": "default.png",
    "dimensions": "64,177",
    "dimensions_orig": "64,177",
    "editionDate": "2022-11-17 08:26:20",
    "emojis": null,
    "engraving_angle": "0",
    "engraving_area": {
      "dmm": "60",
      "engraving_box_x_0": "4",
      "engraving_box_x_len": "30",
      "engraving_box_y_0": "60",
      "engraving_box_y_len": "35",
      "engraving_restriction": "False",
      "fix_engraving_location": "True"
    },
    "fonts": [
      {
        "fontsize": "6.5",
        "laserPin": "20,21,22,23",
        "opacity": "180",
        "police": "Kunstler_Script.ttf",
        "policeName": "Kunstler"
      },
      {
        "fontsize": "4",
        "laserPin": "20,21,22,23",
        "opacity": "140",
        "police": "DINOT-CondBold.ttf",
        "policeName": "DIN"
      },
      {
        "fontsize": "3.5",
        "laserPin": "20,21,22,23",
        "opacity": "140",
        "police": "CochinLTPro.ttf",
        "policeName": "Cochin"
      },
      {
        "fontsize": "5",
        "laserPin": "20,21,22,23",
        "opacity": "140",
        "police": "AdobeArabic-Regular.otf",
        "policeName": "Arabe"
      },
      {
        "fontsize": "4",
        "laserPin": "20,21,22,23",
        "opacity": "140",
        "police": "msyhl.ttc",
        "policeName": "Chinois"
      } 
    ],
    "hatch": "0.05",
    "hauteur": "39.5",
    "id_brand": "Dior",
    "ImageName": "default.png",
    "laser": [
      {
        "description": "20-110",
        "doublehatch": "1",
        "engraving_mode": "hatching",
        "frequence": "30",
        "hatch": "0.04",
        "hatch_angle": "20",
        "mark_delay": "900",
        "n_jump_lines": "20",
        "nbpassage": "1",
        "pinLoad": "20",
        "puissance": "45",
        "use_new_cnc_method": false,
        "vitesse": "600"
      },
      {
        "description": "40-130",
        "doublehatch": "1",
        "engraving_mode": "hatching",
        "frequence": "35",
        "hatch": "0.04",
        "hatch_angle": "40",
        "mark_delay": "900",
        "n_jump_lines": "20",
        "nbpassage": "1",
        "pinLoad": "21",
        "puissance": "50",
        "use_new_cnc_method": false,
        "vitesse": "1600"
      },
      {
        "description": "60-150",
        "doublehatch": "1",
        "engraving_mode": "hatching",
        "frequence": "35",
        "hatch": "0.04",
        "hatch_angle": "60",
        "mark_delay": "900",
        "n_jump_lines": "20",
        "nbpassage": "1",
        "pinLoad": "22",
        "puissance": "50",
        "use_new_cnc_method": false,
        "vitesse": "1600"
      },
      {
        "description": "80-170",
        "doublehatch": "1",
        "engraving_mode": "hatching",
        "frequence": "35",
        "hatch": "0.04",
        "hatch_angle": "80",
        "mark_delay": "900",
        "n_jump_lines": "20",
        "nbpassage": "1",
        "pinLoad": "23",
        "puissance": "50",
        "use_new_cnc_method": false,
        "vitesse": "1600"
      }
    ],
    "max_number_of_lines": "1",
    "maxHeightMM": "24",
    "maxWidthMM": "36",
    "platform_number": "2",
    "cale_name": "J'adore",
    "product_category_id": "jadore_parfum_deau_edp",
    "product_category_name": "J'adore Parfum d'eau EDP",
    "product_id": "100ml",
    "ProductName": "J'adore Parfum d'eau 100ml",
    "radius": "31",
    "text_color": "black",
    "timestamp": 1668673580697
  }
}