{
  "default": {
    "DefImageName": "default.png",
    "dimensions": "63,120",
    "dimensions_orig": "63,120",
    "editionDate": "2023-03-02 10:27:27",
    "emojis": null,
    "engraving_angle": "0",
    "engraving_area": {
      "dmm": "60",
      "engraving_box_x_0": "4",
      "engraving_box_x_len": "30",
      "engraving_box_y_0": "60",
      "engraving_box_y_len": "35",
      "engraving_restriction": "False",
      "fix_engraving_location": "True"
    },
    "fonts": [
      {
        "fontsize": "3.5",
        "laserPin": "1",
        "opacity": "125",
        "police": "PalatinoLinotype-Roman-WithEmojis.otf",
        "policeName": "Palatino"
      }
    ],
    "hatch": "0.06",
    "hauteur": "27",
    "id_brand": "Marly",
    "ImageName": "default.png",
    "laser": [
    {
        "description": "Layton",
        "doublehatch": "0",
        "frequence": "22",
        "hatch": "0.04",
        "hatch_angle": "0",
        "mark_delay": "900",
        "n_jump_lines": "1",
        "nbpassage": "1",
        "pinLoad": "1",
        "puissance": "18",
        "use_new_cnc_method": false,
        "vitesse": "830"
      }
    ],
    "max_number_of_lines": "2",
    "maxHeightMM": "30",
    "maxWidthMM": "36",
    "platform_number": "3",
    "product_category_id": "Layton",
    "product_category_name": "Layton",
    "product_id": "75ml",
    "ProductName": "Layton 75ml",
    "radius": "999999",
    "text_color": "white",
    "timestamp": 1677752847031,
    "X_Offset": "0"
  }
}