{
  "default": {
    "custom_position_image": "col_cravate_xl.png",
    "DefImageName": "default.png",
    "dimensions": "9,64",
    "dimensions_orig": "9,64",
    "engraving_angle": "90",
    "engraving_area": {
      "dmm": "60",
      "engraving_box_x_0": "4",
      "engraving_box_x_len": "30",
      "engraving_box_y_0": "60",
      "engraving_box_y_len": "35",
      "engraving_restriction": "False",
      "fix_engraving_location": "True"
    },
    "fonts": [
      {
        "fontsize": "3.8",
        "laserPin": "1",
        "police": "HennessySans1765_A.otf",
        "policeName": "Hennessy Sans"
      },
      {
        "fontsize": "3.8",
        "laserPin": "1",
        "opacity": "160",
        "police": "HennessyScript1765_A_It.otf",
        "policeName": "Hennessy Script"
      },
      {
        "fontsize": "3",
        "laserPin": "1",
        "police": "DUBAI-LIGHT.TTF",
        "policeName": "Dubai Light"
      },
      {
        "fontsize": "3",
        "laserPin": "1",
        "police": "simkai.ttf",
        "policeName": "Kaiti"
      },
      {
        "fontsize": "3",
        "laserPin": "1",
        "police": "Symbola.woff",
        "policeName": "Symbola"
      }
    ],
    "hatch": "0.08",
    "hauteur": "21",
    "id_brand": "Hennessy",
    "ImageName": "default.png",
    "laser": [
      {
        "description": "Cuir Hennessy Rouge joie",
        "doublehatch": "0",
        "frequence": "30",
        "hatch": "0.08",
        "hatch_angle": "90",
        "mark_delay": "1000",
        "n_jump_lines": "1",
        "nbpassage": "1",
        "pinLoad": "1",
        "puissance": "48",
        "use_new_cnc_method": true,
        "vitesse": "1000"
      }
    ],
    "max_number_of_lines": "1",
    "maxHeightMM": "25.5",
    "maxWidthMM": "7",
    "platform_base_height_xl": "127.5",
    "platform_number": "-1",
    "product_category_id": "paradise_accessories",
    "product_category_name": "Paradise Accessories",
    "product_id": "cravate_paradise_joy_red",
    "ProductName": "Cravate Paradise Joy Red",
    "radius": "999999",
    "text_color": "black",
    "timestamp": 1625044436070,
    "X_Offset": "-7.9",
    "emojis": [
    "",
    "\\u{2022} \\u{2B27}"
  ]
  }
}