{
  "default": {
    "DefImageName": "default.png",
    "dimensions": "64,130",
    "dimensions_orig": "64,130",
    "editionDate": "2023-03-02 11:00:51",
    "emojis": null,
    "engraving_angle": "0",
    "engraving_area": {
      "dmm": "60",
      "engraving_box_x_0": "4",
      "engraving_box_x_len": "30",
      "engraving_box_y_0": "60",
      "engraving_box_y_len": "35",
      "engraving_restriction": "False",
      "fix_engraving_location": "True"
    },
    "fonts": [
      {
        "fontsize": "3.5",
        "laserPin": "1",
        "police": "PalatinoLinotype-Roman-WithEmojis.otf",
        "policeName": "Palatino"
      }
    ],
    "hatch": "0.06",
    "hauteur": "32",
    "id_brand": "Marly",
    "ImageName": "default.png",
    "laser": [
      {
        "description": "Délina la rosée",
        "doublehatch": "0",
        "frequence": "22",
        "hatch": "0.03",
        "hatch_angle": "0",
        "mark_delay": "900",
        "n_jump_lines": "5",
        "nbpassage": "1",
        "pinLoad": "1",
        "puissance": "20",
        "use_new_cnc_method": false,
        "vitesse": "1000"
      }
    ],
    "max_number_of_lines": "2",
    "maxHeightMM": "30",
    "maxWidthMM": "36",
    "platform_number": "3",
    "product_category_id": "la-rosee-Delina-75",
    "product_category_name": "La Rosée Delina ",
    "product_id": "75ml",
    "ProductName": "La Rosée Delina 75ml",
    "radius": "999999",
    "text_color": "black",
    "timestamp": 1677754851279
  }
}