{
  "default": {
    "DefImageName": "default.png",
    "dimensions": "47,92",
    "dimensions_orig": "47,92",
    "editionDate": "2022-06-01 13:06:53",
    "emojis": null,
    "engraving_angle": "0",
    "engraving_area": {
      "dmm": "60",
      "engraving_box_x_0": "4",
      "engraving_box_x_len": "30",
      "engraving_box_y_0": "60",
      "engraving_box_y_len": "35",
      "engraving_restriction": "False",
      "fix_engraving_location": "True"
    },
    "fonts": [
     {
        "fontsize": "6",
        "laserPin": "10,22,23,24",
        "opacity": "60",
        "police": "Kunstler_Script.ttf",
        "policeName": "Kunstler"
      },
      {
        "fontsize": "3.5",
        "laserPin": "21,22,23,24",
        "opacity": "100",
        "police": "DINOT-CondBold.ttf",
        "policeName": "DIN"
      },
      {
        "fontsize": "3.5",
        "laserPin": "21,22,23,24",
        "opacity": "100",
        "police": "CochinLTPro.ttf",
        "policeName": "Cochin"
      },
      {
        "fontsize": "4.7",
        "laserPin": "21,22,23,24",
        "opacity": "100",
        "police": "AdobeArabic-Regular.otf",
        "policeName": "Arabe"
      },
      {
        "fontsize": "3.8",
        "laserPin": "21,22,23,24",
        "opacity": "100",
        "police": "msyhl.ttc",
        "policeName": "Chinois"
      } 
    ],
    "hatch": "0.06",
    "hauteur": "14.2",
    "id_brand": "Dior",
    "ImageName": "default.png",
    "laser": [
{
        "description": "20-110",
        "doublehatch": "0",
        "engraving_mode": "hatching",
        "frequence": "44",
        "hatch": "0.02",
        "hatch_angle": "00",
        "mark_delay": "900",
        "n_jump_lines": "20",
        "nbpassage": "3",
        "pinLoad": "10",
        "puissance": "40",
        "use_new_cnc_method": false,
        "vitesse": "400"
      },
      {
        "description": "40-130",
        "doublehatch": "1",
        "engraving_mode": "hatching",
        "frequence": "35",
        "hatch": "0.04",
        "hatch_angle": "40",
        "mark_delay": "900",
        "n_jump_lines": "20",
        "nbpassage": "1",
        "pinLoad": "22",
        "puissance": "40",
        "use_new_cnc_method": false,
        "vitesse": "1300"
      },
      {
        "description": "60-150",
        "doublehatch": "1",
        "engraving_mode": "hatching",
        "frequence": "35",
        "hatch": "0.04",
        "hatch_angle": "60",
        "mark_delay": "900",
        "n_jump_lines": "20",
        "nbpassage": "1",
        "pinLoad": "23",
        "puissance": "40",
        "use_new_cnc_method": false,
        "vitesse": "1300"
      },
      {
        "description": "80-170",
        "doublehatch": "1",
        "engraving_mode": "hatching",
        "frequence": "35",
        "hatch": "0.04",
        "hatch_angle": "80",
        "mark_delay": "900",
        "n_jump_lines": "20",
        "nbpassage": "1",
        "pinLoad": "24",
        "puissance": "40",
        "use_new_cnc_method": false,
        "vitesse": "1300"
      },
      {
        "description": "20-110",
        "doublehatch": "1",
        "engraving_mode": "hatching",
        "frequence": "35",
        "hatch": "0.04",
        "hatch_angle": "20",
        "mark_delay": "900",
        "n_jump_lines": "20",
        "nbpassage": "1",
        "pinLoad": "21",
        "puissance": "45",
        "use_new_cnc_method": false,
        "vitesse": "250"
      }
    ],
    "max_number_of_lines": "1",
    "maxHeightMM": "40",
    "maxWidthMM": "40",
    "platform_number": "3",
    "product_category_id": "dior_homme_edp_intense",
    "product_category_name": "Dior Homme EDP Intense",
    "product_id": "50ml",
    "ProductName": "Dior Homme EDP Intense 50 ml",
    "radius": "999999",
    "text_color": "white",
    "timestamp": 1654088813766
  }
}