{
  "default": {
    "DefImageName": "default.png",
    "dimensions": "75,145",
    "dimensions_orig": "75,145",
    "editionDate": "2024-01-11 11:16:39",
    "emojis": null,
    "engraving_angle": "0",
    "engraving_area": {
      "dmm": "60",
      "engraving_box_x_0": "4",
      "engraving_box_x_len": "30",
      "engraving_box_y_0": "60",
      "engraving_box_y_len": "35",
      "engraving_restriction": "False",
      "fix_engraving_location": "True"
    },
    "fonts": [
      {
        "fontsize": "3.7",
        "laserPin": "1",
        "opacity": "150",
        "police": "PalatinoLinotype-Roman-WithEmojis.otf",
        "policeName": "palatino"
      }
    ],
    "hatch": "0.02",
    "hauteur": "35",
    "id_brand": "Marly",
    "ImageName": "default.png",
    "laser": [
      {
        "description": "Althaïr",
        "doublehatch": "0",
        "frequence": "12",
        "hatch": "0.02",
        "hatch_angle": "0",
        "mark_delay": "900",
        "n_jump_lines": "5",
        "nbpassage": "1",
        "pinLoad": "1",
        "puissance": "22",
        "use_new_cnc_method": false,
        "vitesse": "650"
      }
    ],
    "max_number_of_lines": "2",
    "maxHeightMM": "40",
    "maxWidthMM": "40",
    "platform_number": "3",
    "product_category_id": "Althaïr",
    "product_category_name": "Althaïr",
    "product_id": "125ml",
    "ProductName": "Althaïr 125 ml",
    "radius": "999999",
    "text_color": "black",
    "timestamp": 1704971799985
  }
}