{
  "default": {
    "DefImageName": "default.png",
    "dimensions": "35,100",
    "dimensions_orig": "35,100",
    "editionDate": "2023-02-20 08:55:50",
    "emojis": [
      "\u2661",
      ""
    ],
    "engraving_angle": "0",
    "engraving_area": {
      "dmm": "60",
      "engraving_box_x_0": "4",
      "engraving_box_x_len": "37",
      "engraving_box_y_0": "60",
      "engraving_box_y_len": "40",
      "engraving_restriction": "False",
      "fix_engraving_location": "True"
    },
    "fonts": [
      {
        "fontsize": "4",
        "fontsize_max": "6",
        "laserPin": "21,22,23,24",
        "police": "cooperhewitt-thin.ttf",
        "policeName": "Modern"
      },
      {
        "fontsize": "4",
        "fontsize_max": "6",
        "laserPin": "21,22,23,24",
        "police": "Zapfino.ttf",
        "policeName": "Classic"
      },
      {
        "fontsize": "4.5",
        "fontsize_max": "",
        "laserPin": "21,22,23,24",
        "police": "SourceHanSerifCN-ExtraLight-3.otf",
        "policeName": "chinois simplifié"
      },
      {
        "fontsize": "4.5",
        "fontsize_max": "",
        "laserPin": "21,22,23,24",
        "police": "SourceHanSerifTC-Regular.otf",
        "policeName": "Chinois trad"
      },
      {
        "fontsize": "4.8",
        "laserPin": "21,22,23,24",
        "opacity": "150",
        "police": "DUBAI-LIGHT.TTF",
        "policeName": "Arabe"
      },
      {
        "fontsize": "5",
        "laserPin": "21,22,23,24",
        "police": "Znikomit-BOEx.otf",
        "policeName": "Russe"
      }
    ],
    "hatch": "0.06",
    "hauteur": "40",
    "id_brand": "MFK",
    "ImageName": "default.png",
    "laser": [
      {
        "description": "20-110",
        "doublehatch": "1",
        "engraving_mode": "hatching",
        "frequence": "35",
        "hatch": "0.06",
        "hatch_angle": "20",
        "mark_delay": "900",
        "n_jump_lines": "20",
        "nbpassage": "2",
        "pinLoad": "21",
        "puissance": "80",
        "use_new_cnc_method": false,
        "vitesse": "300"
      },
      {
        "description": "40-130",
        "doublehatch": "1",
        "engraving_mode": "hatching",
        "frequence": "35",
        "hatch": "0.06",
        "hatch_angle": "40",
        "mark_delay": "900",
        "n_jump_lines": "20",
        "nbpassage": "2",
        "pinLoad": "22",
        "puissance": "80",
        "use_new_cnc_method": false,
        "vitesse": "2000"
      },
      {
        "description": "60-150",
        "doublehatch": "1",
        "engraving_mode": "hatching",
        "frequence": "35",
        "hatch": "0.06",
        "hatch_angle": "60",
        "mark_delay": "900",
        "n_jump_lines": "20",
        "nbpassage": "2",
        "pinLoad": "23",
        "puissance": "80",
        "use_new_cnc_method": false,
        "vitesse": "2000"
      },
      {
        "description": "80-170",
        "doublehatch": "1",
        "engraving_mode": "hatching",
        "frequence": "35",
        "hatch": "0.06",
        "hatch_angle": "80",
        "mark_delay": "900",
        "n_jump_lines": "20",
        "nbpassage": "1",
        "pinLoad": "24",
        "puissance": "80",
        "use_new_cnc_method": false,
        "vitesse": "2000"
      }  
    ],
    "max_number_of_lines": 1,
    "maxHeightMM": "41",
    "maxWidthMM": "20",
    "platform_number": "3",
    "product_category_id": "aqua_universalis",
    "product_category_name": "Perfumes",
    "product_id": "35ml",
    "ProductName": "35 ml",
    "radius": "999999",
    "text_color": "black",
    "timestamp": 1676883350487
  }
}