{
  "default": {
    "DefImageName": "default.png",
    "dimensions": "76,30",
    "dimensions_orig": "76,30",
    "editionDate": "2022-06-15 12:16:33",
    "emojis": null,
    "engraving_angle": "0",
    "engraving_area": {
      "dmm": "60",
      "engraving_box_x_0": "4",
      "engraving_box_x_len": "30",
      "engraving_box_y_0": "60",
      "engraving_box_y_len": "35",
      "engraving_restriction": "False",
      "fix_engraving_location": "True"
    },
    "fonts": [
      {
        "fontsize": "5.5",
        "laserPin": "1",
        "opacity": "50",
        "police": "Kunstler_Script.ttf",
        "policeName": "Kunstler"
      },
      {
        "fontsize": "3.6",
        "laserPin": "2",
        "opacity": "125",
        "police": "DINOT-CondBold.ttf",
        "policeName": "DIN"
      },
      {
        "fontsize": "3.25",
        "laserPin": "2",
        "opacity": "125",
        "police": "CochinLTPro.ttf",
        "policeName": "Cochin"
      },
      {
        "fontsize": "4.3",
        "laserPin": "2",
        "opacity": "125",
        "police": "AdobeArabic-Regular.otf",
        "policeName": "Arabe"
      },
      {
        "fontsize": "3.8",
        "laserPin": "2",
        "opacity": "125",
        "police": "msyhl.ttc",
        "policeName": "Chinois"
      }
    ],
    "hatch": "0.06",
    "hauteur": "18.7",
    "id_brand": "Dior",
    "ImageName": "default.png",
    "laser": [
      {
        "description": "Kunstler",
        "doublehatch": "0",
        "frequence": "4",
        "hatch": "0.020",
        "hatch_angle": "0",
        "mark_delay": "900",
        "n_jump_lines": "3",
        "nbpassage": "1",
        "pinLoad": "1",
        "puissance": "28",
        "skip_jump_lines": "True",
        "use_new_cnc_method": false,
        "vitesse": "700"
      },
      {
        "description": "DIN",
        "doublehatch": "0",
        "engraving_mode": "hatching",
        "frequence": "5",
        "hatch": "0.036",
        "hatch_angle": "0",
        "mark_delay": "900",
        "n_jump_lines": "3",
        "nbpassage": "1",
        "pinLoad": "2",
        "puissance": "28",
        "skip_jump_lines": "True",
        "use_new_cnc_method": false,
        "vitesse": "800"
      }
    ],
    "max_number_of_lines": "1",
    "maxHeightMM": "15",
    "maxWidthMM": "25",
    "platform_number": "3",
    "cale_name": "Forever Cushion",
    "product_category_id": "",
    "product_category_name": "Forever Cushion",
    "product_id": "forever",
    "ProductName": "Forever Cushion",
    "radius": "38",
    "text_color": "white",
    "timestamp": 1655295393636
  }
}