{
  "default": {
    "DefImageName": "default.png",
    "dimensions": "50,90",
    "dimensions_orig": "50,90",
    "editionDate": "2022-06-01 13:31:45",
    "emojis": null,
    "engraving_angle": "0",
    "engraving_area": {
      "dmm": "60",
      "engraving_box_x_0": "4",
      "engraving_box_x_len": "30",
      "engraving_box_y_0": "60",
      "engraving_box_y_len": "35",
      "engraving_restriction": "False",
      "fix_engraving_location": "True"
    },
    "fonts": [
      {
        "fontsize": "5.3",
        "laserPin": "1",
        "opacity": "100",
        "police": "Kunstler_Script.ttf",
        "policeName": "Kunstler"
      },
      {
        "fontsize": "3.3",
        "laserPin": "1",
        "opacity": "125",
        "police": "DINOT-CondBold.ttf",
        "policeName": "DIN"
      },
      {
        "fontsize": "3.5",
        "laserPin": "1",
        "opacity": "125",
        "police": "CochinLTPro.ttf",
        "policeName": "Cochin"
      },
      {
        "fontsize": "4.2",
        "laserPin": "1",
        "opacity": "125",
        "police": "AdobeArabic-Regular.otf",
        "policeName": "Arabe"
      },
      {
        "fontsize": "3.7",
        "laserPin": "1",
        "opacity": "125",
        "police": "msyhl.ttc",
        "policeName": "Chinois"
      }
    ],
    "hatch": "0.05",
    "hauteur": "16.4",
    "id_brand": "Dior",
    "ImageName": "default.png",
    "laser": [
      {
        "description": "Param 01 09 2023 Sam Eric",
        "doublehatch": "1",
        "frequence": "33",
        "mark_delay": "900",
        "n_jump_lines": "1",
        "nbpassage": "10",
        "pinLoad": "1",
        "puissance": "50",
        "use_new_cnc_method": false,
        "vitesse": "700"
      }
    ],
    "max_number_of_lines": "1",
    "maxHeightMM": "10",
    "maxWidthMM": "30",
    "platform_number": "3",
    "product_category_id": "dior_sauvage_parfum",
    "product_category_name": "Sauvage Parfum",
    "product_id": "60ml",
    "ProductName": "Sauvage Parfum 60ml",
    "radius": "23.5",
    "text_color": "white",
    "timestamp": 1654090305380
  }
}