 {
  "default": {
    "DefImageName": "default.png",
    "dimensions": "59,150",
    "dimensions_orig": "59,150",
    "editionDate": "2022-06-01 13:22:50",
    "emojis": null,
    "engraving_angle": "0",
    "engraving_area": {
      "dmm": "60",
      "engraving_box_x_0": "4",
      "engraving_box_x_len": "30",
      "engraving_box_y_0": "60",
      "engraving_box_y_len": "35",
      "engraving_restriction": "False",
      "fix_engraving_location": "True"
    },
    "fonts": [
      {
        "fontsize": "6",
        "laserPin": "1",
        "opacity": "100",
        "police": "Kunstler_Script.ttf",
        "policeName": "Kunstler"
      },
      {
        "fontsize": "3.9",
        "laserPin": "1",
        "opacity": "125",
        "police": "DINOT-CondBold.ttf",
        "policeName": "DIN"
      },
      {
        "fontsize": "3.5",
        "laserPin": "1",
        "opacity": "125",
        "police": "CochinLTPro.ttf",
        "policeName": "Cochin"
      },
      {
        "fontsize": "4.9",
        "laserPin": "1",
        "opacity": "125",
        "police": "AdobeArabic-Regular.otf",
        "policeName": "Arabe"
      },
      {
        "fontsize": "3.9",
        "laserPin": "1",
        "opacity": "125",
        "police": "msyhl.ttc",
        "policeName": "Chinois"
      }
    ],
    "hatch": "0.05",
    "hauteur": "27",
    "id_brand": "Dior",
    "ImageName": "default.png",
    "laser": [
      {
        "description": "Param Charlotte 2019",
        "doublehatch": "1",
        "frequence": "40",
        "mark_delay": "50",
        "n_jump_lines": "1",
        "nbpassage": "30",
        "pinLoad": "1",
        "puissance": "50",
        "use_new_cnc_method": false,
        "vitesse": "1500"
      }
    ],
    "max_number_of_lines": "1",
    "maxHeightMM": "25",
    "maxWidthMM": "35",
    "platform_number": "3",
    "product_category_id": "dior_sauvage_edp",
    "product_category_name": "Sauvage EDP",
    "product_id": "200ml",
    "ProductName": "Sauvage EDP 200ml",
    "radius": "30",
    "text_color": "white",
    "timestamp": 1654089770110
  }
}