{
  "default": {
    "DefImageName": "default.png",
    "dimensions": "70,192",
    "dimensions_orig": "70,192",
    "editionDate": "2022-09-09 07:16:50",
    "emojis": null,
    "engraving_angle": "0",
    "engraving_area": {
      "dmm": "60",
      "engraving_box_x_0": "4",
      "engraving_box_x_len": "30",
      "engraving_box_y_0": "60",
      "engraving_box_y_len": "35",
      "engraving_restriction": "False",
      "fix_engraving_location": "True"
    },
    "fonts": [
      {
        "fontsize": "7",
        "laserPin": "10,22,23,24",
        "opacity": "60",
        "police": "Kunstler_Script.ttf",
        "policeName": "Kunstler"
      },
      {
        "fontsize": "4.5",
        "laserPin": "21,22,23,24",
        "opacity": "125",
        "police": "DINOT-CondBold.ttf",
        "policeName": "DIN"
      },
      {
        "fontsize": "4",
        "laserPin": "21,22,23,24",
        "opacity": "125",
        "police": "CochinLTPro.ttf",
        "policeName": "Cochin"
      },
      {
        "fontsize": "5.8",
        "laserPin": "21,22,23,24",
        "opacity": "125",
        "police": "AdobeArabic-Regular.otf",
        "policeName": "Arabe"
      },
      {
        "fontsize": "4.7",
        "laserPin": "21,22,23,24",
        "opacity": "125",
        "police": "msyhl.ttc",
        "policeName": "Chinois"
      }
    ],
    "hatch": "0.05",
    "hauteur": "47",
    "id_brand": "Dior",
    "ImageName": "default.png",
    "laser": [
{
        "description": "20-110",
        "doublehatch": "1",
        "engraving_mode": "hatching",
        "frequence": "17",
        "hatch": "0.04",
        "hatch_angle": "20",
        "mark_delay": "900",
        "n_jump_lines": "20",
        "nbpassage": "1",
        "pinLoad": "10",
        "puissance": "60",
        "use_new_cnc_method": false,
        "vitesse": "185"
      },
{
        "description": "20-110",
        "doublehatch": "1",
        "engraving_mode": "hatching",
        "frequence": "17",
        "hatch": "0.04",
        "hatch_angle": "20",
        "mark_delay": "900",
        "n_jump_lines": "20",
        "nbpassage": "1",
        "pinLoad": "10",
        "puissance": "60",
        "use_new_cnc_method": false,
        "vitesse": "185"
      },
      {
        "description": "20-110",
        "doublehatch": "1",
        "engraving_mode": "hatching",
        "frequence": "35",
        "hatch": "0.03",
        "hatch_angle": "20",
        "mark_delay": "900",
        "n_jump_lines": "20",
        "nbpassage": "1",
        "pinLoad": "21",
        "puissance": "50",
        "use_new_cnc_method": false,
        "vitesse": "250"
      },
      {
        "description": "40-130",
        "doublehatch": "1",
        "engraving_mode": "hatching",
        "frequence": "35",
        "hatch": "0.04",
        "hatch_angle": "40",
        "mark_delay": "900",
        "n_jump_lines": "20",
        "nbpassage": "1",
        "pinLoad": "22",
        "puissance": "50",
        "use_new_cnc_method": false,
        "vitesse": "2000"
      },
      {
        "description": "60-150",
        "doublehatch": "1",
        "engraving_mode": "hatching",
        "frequence": "35",
        "hatch": "0.04",
        "hatch_angle": "60",
        "mark_delay": "900",
        "n_jump_lines": "20",
        "nbpassage": "1",
        "pinLoad": "23",
        "puissance": "50",
        "use_new_cnc_method": false,
        "vitesse": "2000"
      },
      {
        "description": "80-170",
        "doublehatch": "1",
        "engraving_mode": "hatching",
        "frequence": "35",
        "hatch": "0.04",
        "hatch_angle": "80",
        "mark_delay": "900",
        "n_jump_lines": "20",
        "nbpassage": "1",
        "pinLoad": "24",
        "puissance": "50",
        "use_new_cnc_method": false,
        "vitesse": "2000"
      }
    ],
    "max_number_of_lines": "1",
    "maxHeightMM": "22",
    "maxWidthMM": "33",
    "platform_number": "2",
    "cale_name": "J'adore",
    "product_category_id": "jadore_edp",
    "product_category_name": "J'adore EDP",
    "product_id": "150ml",
    "ProductName": "J'adore EDP 150ml",
    "radius": "35",
    "text_color": "black",
    "timestamp": 1662707810286
  }
}