{
  "default": {
    "DefImageName": "default.png",
    "dimensions": "41.5,101",
    "dimensions_orig": "41.5,101",
    "editionDate": "2023-12-29 14:17:24",
    "emojis": null,
    "engraving_angle": "0",
    "engraving_area": {
      "dmm": "60",
      "engraving_box_x_0": "4",
      "engraving_box_x_len": "30",
      "engraving_box_y_0": "60",
      "engraving_box_y_len": "35",
      "engraving_restriction": "False",
      "fix_engraving_location": "True"
    },
    "fonts": [
      {
        "fontsize": "4",
        "fontsize_max": "4",
        "laserPin": "1",
        "police": "Strawford-Regular.otf",
        "policeName": "Strawford-regular"
      }
    ],
    "hatch": "0.07",
    "hauteur": "17.5",
    "id_brand": "MFK",
    "ImageName": "default.png",
    "laser": [
      {
        "description": "Description of the result for these parameters",
        "doublehatch": "0",
        "frequence": "22",
        "hatch": "0.07",
        "hatch_angle": "0",
        "mark_delay": "900",
        "n_jump_lines": "5",
        "nbpassage": "3",
        "pinLoad": "1",
        "puissance": "19",
        "use_new_cnc_method": false,
        "vitesse": "2000"
      }
 ],
    "max_number_of_lines": "1",
    "maxHeightMM": "50",
    "maxWidthMM": "20",
    "platform_number": "3",
    "cale_remove_img": "DWS_App_step_3_MFK_EN.png",
    "product_category_id": "Leather_case_red",
    "product_category_name": "Leather_case_red",
    "product_id": "Leather_case_red",
    "ProductName": "Leather Case Red",
    "radius": "999999",
    "text_color": "black",
    "timestamp": 1703859444574
  }
}